…
Let’s start with a for loop.

``` r
output = vector("list", length = 100)

for (i in 1:100) {
  
  output[[i]] = sim_mean_sd(samp_size = 30)
  
}

bind_rows(output)
```

    ## # A tibble: 100 x 2
    ##     mean    sd
    ##    <dbl> <dbl>
    ##  1  2.67  3.82
    ##  2  2.69  4.02
    ##  3  1.66  5.02
    ##  4  2.79  3.47
    ##  5  2.59  4.80
    ##  6  3.78  4.03
    ##  7  3.35  3.51
    ##  8  2.87  3.42
    ##  9  3.97  3.66
    ## 10  3.04  3.87
    ## # ... with 90 more rows
…
